{
    "data":[
        {
            "page": 1,
            "per_page": 5,
            "page_count": 10,
            "total_count": 50,
            "records":[
                {
                    "id":1,
                    "location":"Vietnam",
                    "date": "01/27/2023 12:00:00 AM ",
                    "number-of-order":"10",
                    "total-sale":"12"
                },
                {
                    "id":2,
                    "location":"Vietnam",
                    "date": "01/27/2023 12:00:00 AM ",
                    "number-of-order":"10",
                    "total-sale":"12"
                },{
                    "id":3,
                    "location":"Vietnam",
                    "date": "01/27/2023 12:00:00 AM ",
                    "number-of-order":"10",
                    "total-sale":"12"
                },
                {
                    "id":4,
                    "location":"Vietnam",
                    "date": "01/27/2023 12:00:00 AM ",
                    "number-of-order":"10",
                    "total-sale":"12"
                },{
                    "id":5,
                    "location":"Vietnam",
                    "date": "01/27/2023 12:00:00 AM ",
                    "number-of-order":"10",
                    "total-sale":"12"
                }
            ]
        },
        {
            "page": 2,
            "per_page": 5,
            "page_count": 10,
            "total_count": 50,
            "records":[
                {
                    "id":6,
                    "location":"Thailand",
                    "date": "01/27/2023 12:00:00 AM ",
                    "number-of-order":"10",
                    "total-sale":"12"
                },
                {
                    "id":7,
                    "location":"Thailand",
                    "date": "01/27/2023 12:00:00 AM ",
                    "number-of-order":"10",
                    "total-sale":"12"
                },{
                    "id":8,
                    "location":"Thailand",
                    "date": "01/27/2023 12:00:00 AM ",
                    "number-of-order":"10",
                    "total-sale":"12"
                },
                {
                    "id":9,
                    "location":"Thailand",
                    "date": "01/27/2023 12:00:00 AM ",
                    "number-of-order":"10",
                    "total-sale":"12"
                },{
                    "id":10,
                    "location":"Thailand",
                    "date": "01/27/2023 12:00:00 AM ",
                    "number-of-order":"10",
                    "total-sale":"12"
                }
            ]
        },
        {
            "page": 3,
            "per_page": 5,
            "page_count": 10,
            "total_count": 50,
            "records":[
                {
                    "id":1,
                    "location":"Malaysia",
                    "date": "01/27/2023 12:00:00 AM ",
                    "number-of-order":"10",
                    "total-sale":"12"
                },
                {
                    "id":2,
                    "location":"Malaysia",
                    "date": "01/27/2023 12:00:00 AM ",
                    "number-of-order":"10",
                    "total-sale":"12"
                },{
                    "id":3,
                    "location":"Malaysia",
                    "date": "01/27/2023 12:00:00 AM ",
                    "number-of-order":"10",
                    "total-sale":"12"
                },
                {
                    "id":4,
                    "location":"Malaysia",
                    "date": "01/27/2023 12:00:00 AM ",
                    "number-of-order":"10",
                    "total-sale":"12"
                },{
                    "id":5,
                    "location":"Malaysia",
                    "date": "01/27/2023 12:00:00 AM ",
                    "number-of-order":"10",
                    "total-sale":"12"
                }
            ]
        },
        {
            "page": 4,
            "per_page": 5,
            "page_count": 10,
            "total_count": 50,
            "records":[
                {
                    "id":1,
                    "location":"Singapore",
                    "date": "01/27/2023 12:00:00 AM ",
                    "number-of-order":"10",
                    "total-sale":"12"
                },
                {
                    "id":2,
                    "location":"Singapore",
                    "date": "01/27/2023 12:00:00 AM ",
                    "number-of-order":"10",
                    "total-sale":"12"
                },{
                    "id":3,
                    "location":"Singapore",
                    "date": "01/27/2023 12:00:00 AM ",
                    "number-of-order":"10",
                    "total-sale":"12"
                },
                {
                    "id":4,
                    "location":"Singapore",
                    "date": "01/27/2023 12:00:00 AM ",
                    "number-of-order":"10",
                    "total-sale":"12"
                },{
                    "id":5,
                    "location":"Singapore",
                    "date": "01/27/2023 12:00:00 AM ",
                    "number-of-order":"10",
                    "total-sale":"12"
                }
            ]
        },
        {
            "page": 5,
            "per_page": 5,
            "page_count": 10,
            "total_count": 50,
            "records":[
                {
                    "id":1,
                    "location":"Vietnam",
                    "date": "02/27/2023 12:00:00 AM ",
                    "number-of-order":"10",
                    "total-sale":"12"
                },
                {
                    "id":2,
                    "location":"Vietnam",
                    "date": "02/28/2023 12:00:00 AM ",
                    "number-of-order":"10",
                    "total-sale":"12"
                },{
                    "id":3,
                    "location":"Vietnam",
                    "date": "02/29/2023 12:00:00 AM ",
                    "number-of-order":"10",
                    "total-sale":"12"
                },
                {
                    "id":4,
                    "location":"Vietnam",
                    "date": "02/30/2023 12:00:00 AM ",
                    "number-of-order":"10",
                    "total-sale":"12"
                },{
                    "id":5,
                    "location":"Vietnam",
                    "date": "02/31/2023 12:00:00 AM ",
                    "number-of-order":"10",
                    "total-sale":"12"
                }
            ]
        },
        {
            "page": 6,
            "per_page": 5,
            "page_count": 10,
            "total_count": 50,
            "records":[
                {
                    "id":1,
                    "location":"Vietnam",
                    "date": "02/27/2023 12:00:00 AM ",
                    "number-of-order":"10",
                    "total-sale":"12"
                },
                {
                    "id":2,
                    "location":"Vietnam",
                    "date": "01/27/2023 12:00:00 AM ",
                    "number-of-order":"10",
                    "total-sale":"12"
                },{
                    "id":3,
                    "location":"Vietnam",
                    "date": "01/27/2023 12:00:00 AM ",
                    "number-of-order":"10",
                    "total-sale":"12"
                },
                {
                    "id":4,
                    "location":"Vietnam",
                    "date": "01/27/2023 12:00:00 AM ",
                    "number-of-order":"10",
                    "total-sale":"12"
                },{
                    "id":5,
                    "location":"Vietnam",
                    "date": "01/27/2023 12:00:00 AM ",
                    "number-of-order":"10",
                    "total-sale":"12"
                }
            ]
        },
        {
            "page": 7,
            "per_page": 5,
            "page_count": 10,
            "total_count": 50,
            "records":[
                {
                    "id":1,
                    "location":"Vietnam",
                    "date": "01/27/2023 12:00:00 AM ",
                    "number-of-order":"10",
                    "total-sale":"12"
                },
                {
                    "id":2,
                    "location":"Vietnam",
                    "date": "01/27/2023 12:00:00 AM ",
                    "number-of-order":"10",
                    "total-sale":"12"
                },{
                    "id":3,
                    "location":"Vietnam",
                    "date": "01/27/2023 12:00:00 AM ",
                    "number-of-order":"10",
                    "total-sale":"12"
                },
                {
                    "id":4,
                    "location":"Vietnam",
                    "date": "01/27/2023 12:00:00 AM ",
                    "number-of-order":"10",
                    "total-sale":"12"
                },{
                    "id":5,
                    "location":"Vietnam",
                    "date": "01/27/2023 12:00:00 AM ",
                    "number-of-order":"10",
                    "total-sale":"12"
                }
            ]
        },
        {
            "page": 8,
            "per_page": 5,
            "page_count": 10,
            "total_count": 50,
            "records":[
                {
                    "id":1,
                    "location":"Vietnam",
                    "date": "01/27/2023 12:00:00 AM ",
                    "number-of-order":"10",
                    "total-sale":"12"
                },
                {
                    "id":2,
                    "location":"Vietnam",
                    "date": "01/27/2023 12:00:00 AM ",
                    "number-of-order":"10",
                    "total-sale":"12"
                },{
                    "id":3,
                    "location":"Vietnam",
                    "date": "01/27/2023 12:00:00 AM ",
                    "number-of-order":"10",
                    "total-sale":"12"
                },
                {
                    "id":4,
                    "location":"Vietnam",
                    "date": "01/27/2023 12:00:00 AM ",
                    "number-of-order":"10",
                    "total-sale":"12"
                },{
                    "id":5,
                    "location":"Vietnam",
                    "date": "01/27/2023 12:00:00 AM ",
                    "number-of-order":"10",
                    "total-sale":"12"
                }
            ]
        },
        {
            "page": 9,
            "per_page": 5,
            "page_count": 10,
            "total_count": 50,
            "records":[
                {
                    "id":1,
                    "location":"Vietnam",
                    "date": "01/27/2023 12:00:00 AM ",
                    "number-of-order":"10",
                    "total-sale":"12"
                },
                {
                    "id":2,
                    "location":"Vietnam",
                    "date": "01/27/2023 12:00:00 AM ",
                    "number-of-order":"10",
                    "total-sale":"12"
                },{
                    "id":3,
                    "location":"Vietnam",
                    "date": "01/27/2023 12:00:00 AM ",
                    "number-of-order":"10",
                    "total-sale":"12"
                },
                {
                    "id":4,
                    "location":"Vietnam",
                    "date": "01/27/2023 12:00:00 AM ",
                    "number-of-order":"10",
                    "total-sale":"12"
                },{
                    "id":5,
                    "location":"Vietnam",
                    "date": "01/27/2023 12:00:00 AM ",
                    "number-of-order":"10",
                    "total-sale":"12"
                }
            ]
        },
        {
            "page": 10,
            "per_page": 5,
            "page_count": 10,
            "total_count": 50,
            "records":[
                {
                    "id":1,
                    "location":"Vietnam",
                    "date": "01/27/2023 12:00:00 AM ",
                    "number-of-order":"10",
                    "total-sale":"12"
                },
                {
                    "id":2,
                    "location":"Vietnam",
                    "date": "01/27/2023 12:00:00 AM ",
                    "number-of-order":"10",
                    "total-sale":"12"
                },{
                    "id":3,
                    "location":"Vietnam",
                    "date": "01/27/2023 12:00:00 AM ",
                    "number-of-order":"10",
                    "total-sale":"12"
                },
                {
                    "id":4,
                    "location":"Vietnam",
                    "date": "01/27/2023 12:00:00 AM ",
                    "number-of-order":"10",
                    "total-sale":"12"
                },{
                    "id":5,
                    "location":"Vietnam",
                    "date": "01/27/2023 12:00:00 AM ",
                    "number-of-order":"10",
                    "total-sale":"12"
                }
            ]
        }
    ]
}